main.cpp:716:13:void MX_GPIO_Init()	80	static
debug.hpp:136:1:void arma::arma_stop_logic_error(const T1&) [with T1 = const char*]	16	static
debug.hpp:155:1:void arma::arma_stop_bad_alloc(const T1&) [with T1 = char [39]]	16	static
debug.hpp:136:1:void arma::arma_stop_logic_error(const T1&) [with T1 = std::__cxx11::basic_string<char>]	16	static
debug.hpp:433:1:std::__cxx11::string arma::arma_incompat_size_string(arma::uword, arma::uword, arma::uword, arma::uword, const char*)	232	static
main.cpp:824:1:void __static_initialization_and_destruction_0(int, int)	16	static
main.cpp:160:5:int pwm_set(int, int, int)	16	static
main.cpp:818:6:void Error_Handler()	0	static,ignoring_inline_asm
main.cpp:102:5:int sdcard_test_stat()	16	static
main.cpp:547:13:void MX_SPI1_Init()	8	static
main.cpp:646:13:void MX_USART1_UART_Init()	8	static
main.cpp:681:13:void MX_USART2_UART_Init()	8	static
main.cpp:501:13:void MX_I2C1_Init()	8	static
main.cpp:587:13:void MX_TIM3_Init()	48	static
main.cpp:443:6:void SystemClock_Config()	240	static
Mat_meat.hpp:23:1:arma::Mat<eT>::~Mat() [with eT = double]	8	static
Mat_meat.hpp:229:1:void arma::Mat<eT>::init_warm(arma::uword, arma::uword) [with eT = double]	56	static
arrayops_meat.hpp:51:1:static void arma::arrayops::copy_small(eT*, const eT*, arma::uword) [with eT = double]	0	static
Col_meat.hpp:34:1:arma::Col<eT>::Col(const arma::Col<eT>&) [with eT = double]	32	static
Mat_meat.hpp:1099:1:void arma::Mat<eT>::steal_mem(arma::Mat<eT>&) [with eT = double]	64	static
Col_meat.hpp:241:3:arma::Col<eT>& arma::Col<eT>::operator=(const std::initializer_list<_Tp>&) [with eT = double]	248	static
arrayops_meat.hpp:665:1:static void arma::arrayops::inplace_set_small(eT*, eT, arma::uword) [with eT = double]	0	static
EKF.h:5:7:constexpr EKF::EKF()	192	static
eop_core_meat.hpp:245:1:static void arma::eop_core<eop_type>::apply(outT&, const arma::eOp<T1, eop_type>&) [with outT = arma::Mat<double>; T1 = arma::subview_col<double>; eop_type = arma::eop_scalar_times]	64	static
eglue_core_meat.hpp:259:1:static void arma::eglue_core<eglue_type>::apply(outT&, const arma::eGlue<T1, T2, eglue_type>&) [with outT = arma::Mat<double>; T1 = arma::Col<double>; T2 = arma::subview_col<double>; eglue_type = arma::eglue_plus]	64	static
main.cpp:210:5:int main()	2456	static
main.cpp:824:1:cpp)	8	static
main.cpp:824:1:cpp)	8	static
